%YAML 1.1
%TAG !u! tag:unity3d.com,2011:
--- !u!21 &2100000
Material:
  serializedVersion: 6
  m_ObjectHideFlags: 0
  m_CorrespondingSourceObject: {fileID: 0}
  m_PrefabInstance: {fileID: 0}
  m_PrefabAsset: {fileID: 0}
  m_Name: 10221-di-008
  m_Shader: {fileID: 4800000, guid: 36ad4feb11dd1f14ba706efcdea87b52, type: 3}
  m_ShaderKeywords: 
  m_LightmapFlags: 4
  m_EnableInstancingVariants: 0
  m_DoubleSidedGI: 0
  m_CustomRenderQueue: -1
  stringTagMap: {}
  disabledShaderPasses: []
  m_SavedProperties:
    serializedVersion: 3
    m_TexEnvs:
    - _BumpMap:
        m_Texture: {fileID: 0}
        m_Scale: {x: 1, y: 1}
        m_Offset: {x: 0, y: 0}
    - _DetailAlbedoMap:
        m_Texture: {fileID: 0}
        m_Scale: {x: 1, y: 1}
        m_Offset: {x: 0, y: 0}
    - _DetailMask:
        m_Texture: {fileID: 0}
        m_Scale: {x: 1, y: 1}
        m_Offset: {x: 0, y: 0}
    - _DetailNormalMap:
        m_Texture: {fileID: 0}
        m_Scale: {x: 1, y: 1}
        m_Offset: {x: 0, y: 0}
    - _EmissionMap:
        m_Texture: {fileID: 0}
        m_Scale: {x: 1, y: 1}
        m_Offset: {x: 0, y: 0}
    - _Erosion:
        m_Texture: {fileID: 0}
        m_Scale: {x: 1, y: 1}
        m_Offset: {x: 0, y: 0}
    - _MainTex:
        m_Texture: {fileID: 2800000, guid: 8caedfbed9f0830458641d02d1369082, type: 3}
        m_Scale: {x: 1, y: 1}
        m_Offset: {x: 0, y: 0}
    - _Mask:
        m_Texture: {fileID: 2800000, guid: f511f9a314f1ea547a1a49542bd08d70, type: 3}
        m_Scale: {x: 1, y: 1}
        m_Offset: {x: 0, y: 0}
    - _MetallicGlossMap:
        m_Texture: {fileID: 0}
        m_Scale: {x: 1, y: 1}
        m_Offset: {x: 0, y: 0}
    - _OcclusionMap:
        m_Texture: {fileID: 0}
        m_Scale: {x: 1, y: 1}
        m_Offset: {x: 0, y: 0}
    - _ParallaxMap:
        m_Texture: {fileID: 0}
        m_Scale: {x: 1, y: 1}
        m_Offset: {x: 0, y: 0}
    - _Texture:
        m_Texture: {fileID: 2800000, guid: 7ab44978b03a7494586f5a4d3766dd1f, type: 3}
        m_Scale: {x: 1, y: 2.51}
        m_Offset: {x: 0, y: 0}
    - _Twist_Texture:
        m_Texture: {fileID: 0}
        m_Scale: {x: 1, y: 1}
        m_Offset: {x: 0, y: 0}
    - _Vertex_Move:
        m_Texture: {fileID: 0}
        m_Scale: {x: 1, y: 1}
        m_Offset: {x: 0, y: 0}
    - _mask:
        m_Texture: {fileID: 2800000, guid: cc01fe3ffd19df44d8f7b0e05d8c9ecd, type: 3}
        m_Scale: {x: 1, y: 1}
        m_Offset: {x: 0, y: 0}
    - _mask1:
        m_Texture: {fileID: 2800000, guid: 97e1b7a9c7fe3304e8ab2a557316e1b5, type: 3}
        m_Scale: {x: 1, y: 1}
        m_Offset: {x: 0, y: 0}
    - _node_8112:
        m_Texture: {fileID: 2800000, guid: 8caedfbed9f0830458641d02d1369082, type: 3}
        m_Scale: {x: 1.19, y: 0.38}
        m_Offset: {x: 0.66, y: 4.5}
    - _node_8699:
        m_Texture: {fileID: 2800000, guid: e14bf620b52b09044951c13a8e1c343a, type: 3}
        m_Scale: {x: 1, y: 1}
        m_Offset: {x: 0, y: 0}
    - _texture:
        m_Texture: {fileID: 2800000, guid: e016641233ce7034fb9a9f050d2ceb9b, type: 3}
        m_Scale: {x: 1, y: 1}
        m_Offset: {x: 0, y: 0}
    m_Floats:
    - _123: 4.49
    - _BumpScale: 1
    - _Cutoff: 0.5
    - _DetailNormalMapScale: 1
    - _DstBlend: 0
    - _GlossMapScale: 1
    - _Glossiness: 0.5
    - _GlossyReflections: 1
    - _Metallic: 0
    - _Mode: 0
    - _OcclusionStrength: 1
    - _Parallax: 0.02
    - _SmoothnessTextureChannel: 0
    - _Soft_Value: 1
    - _SpecularHighlights: 1
    - _SrcBlend: 1
    - _Twist_Value: 0
    - _UVSec: 0
    - _U_Mask_Speed: 0
    - _U_Speed: 0.39
    - _U_Twist_Speed: 0
    - _U_Vertex_Speed: 0
    - _V_Mask_Speed: 0
    - _V_Speed: 1.23
    - _V_Twist_Speed: 0
    - _V_Vertex_Speed: 0
    - _ZWrite: 1
    - _in: 0.395
    - _node_2872: 0
    - _node_8898: 7.14
    - _u_move: -0.2
    - _v_move: -0.2
    - _yuhua: 0
    m_Colors:
    - _Center: {r: 0, g: 0, b: 0, a: 1}
    - _Clolor: {r: 1, g: 1, b: 1, a: 1}
    - _Color: {r: 1, g: 1, b: 1, a: 1}
    - _EmissionColor: {r: 0, g: 0, b: 0, a: 1}
    - _Normal: {r: 0, g: 0, b: 1, a: 0}
    - _Scale: {r: 1, g: 1, b: 1, a: 1}
    - _TintColor: {r: 0.5, g: 0.5, b: 0.5, a: 0.5}
    - _Vertex_Value: {r: 0, g: 0, b: 0, a: 0}
    - _color: {r: 0.3962264, g: 0.2855397, b: 0, a: 0.2784314}
    - _node_569: {r: 0.8207547, g: 0.1011195, b: 0.0038714937, a: 1}
