%YAML 1.1
%TAG !u! tag:unity3d.com,2011:
--- !u!21 &2100000
Material:
  serializedVersion: 6
  m_ObjectHideFlags: 0
  m_CorrespondingSourceObject: {fileID: 0}
  m_PrefabInstance: {fileID: 0}
  m_PrefabAsset: {fileID: 0}
  m_Name: 20211_light_004
  m_Shader: {fileID: 4800000, guid: a13dfd66e46cd7b4f83efe9f422a9f26, type: 3}
  m_ShaderKeywords: 
  m_LightmapFlags: 0
  m_EnableInstancingVariants: 0
  m_DoubleSidedGI: 0
  m_CustomRenderQueue: -1
  stringTagMap: {}
  disabledShaderPasses: []
  m_SavedProperties:
    serializedVersion: 3
    m_TexEnvs:
    - _AlphaTex:
        m_Texture: {fileID: 2800000, guid: 793b8cb869922bd479e7b68fcc4c6d8c, type: 3}
        m_Scale: {x: 1, y: 0.5}
        m_Offset: {x: 0, y: 0}
    - _AlphaTex2:
        m_Texture: {fileID: 0}
        m_Scale: {x: 1, y: 1}
        m_Offset: {x: 0, y: 0}
    - _AlphaTex3:
        m_Texture: {fileID: 0}
        m_Scale: {x: 1, y: 1}
        m_Offset: {x: 0, y: 0}
    - _AlphaTex4:
        m_Texture: {fileID: 0}
        m_Scale: {x: 1, y: 1}
        m_Offset: {x: 0, y: 0}
    - _AlphaTex5:
        m_Texture: {fileID: 0}
        m_Scale: {x: 1, y: 1}
        m_Offset: {x: 0, y: 0}
    - _DistortionTex:
        m_Texture: {fileID: 0}
        m_Scale: {x: 1, y: 1}
        m_Offset: {x: 0, y: 0}
    - _GradientTex:
        m_Texture: {fileID: 0}
        m_Scale: {x: 1, y: 1}
        m_Offset: {x: 0, y: 0}
    - _MainTex:
        m_Texture: {fileID: 2800000, guid: a59c1bb44671ce7498d181586afa90b5, type: 3}
        m_Scale: {x: 3, y: 1}
        m_Offset: {x: 0, y: 0}
    - _SoftDissolveTex:
        m_Texture: {fileID: 0}
        m_Scale: {x: 1, y: 1}
        m_Offset: {x: 0, y: 0}
    - _VertexOffsetTex:
        m_Texture: {fileID: 0}
        m_Scale: {x: 1, y: 1}
        m_Offset: {x: 0, y: 0}
    - _tex4coord:
        m_Texture: {fileID: 0}
        m_Scale: {x: 1, y: 1}
        m_Offset: {x: 0, y: 0}
    - _texcoord:
        m_Texture: {fileID: 0}
        m_Scale: {x: 1, y: 1}
        m_Offset: {x: 0, y: 0}
    - _texcoord2:
        m_Texture: {fileID: 0}
        m_Scale: {x: 1, y: 1}
        m_Offset: {x: 0, y: 0}
    m_Floats:
    - _Alpha2U: 0.2
    - _Alpha2V: 0.2
    - _Alpha3U: 0
    - _Alpha3V: 0
    - _Alpha4U: 0
    - _Alpha4V: 0
    - _Alpha5U: 0
    - _Alpha5V: 0
    - _AlphaTexUV2: 0
    - _AlphaU: 0.3
    - _AlphaV: 0.1
    - _CustomDataUV2XInfluenceSoftDissolve: 0
    - _CustomDataUV2X_Indensity: 1
    - _DepthFade: 0
    - _DepthFadeIndensity: 1
    - _DissolveTexPlusValue: 0
    - _Distortion2UV: 0
    - _DistortionIndensity: 0
    - _DistortionInfluenceGradient: 0
    - _DistortionInfluenceOffset: 0
    - _DistortionInfluenceSoft: 0
    - _DistortionU: 0
    - _DistortionV: 0
    - _GradientTexU: 0
    - _GradientTexV: 0
    - _Indensity: 60
    - _LineIndensity: 1
    - _LineRange: 0.5
    - _LineWidth: 0.1
    - _MainPower: 1
    - _MainU: 0.3
    - _MainV: 0.5
    - _Opacity: 12
    - _OpacityPower: 1
    - _SoftDissolveIndensity: 0
    - _SoftDissolveSoft: 0
    - _SoftDissolveSwitch: 0
    - _SoftDissolveTexU: 0
    - _SoftDissolveTexV: 0
    - _VertexColorInfluenceSoftDissolve: 0
    - _VertexOffsetIndensity: 0
    - _VertexOffsetTexU: 0
    - _VertexOffsetTexV: 0
    - __dirty: 0
    m_Colors:
    - _Color: {r: 11.984314, g: 5.418424, b: 2.8235292, a: 1}
    - _LineColor: {r: 1, g: 1, b: 1, a: 1}
